## Interface: 11200
## Title: Rhodzevool Tools (v0.13)
## Version: 0.13
## Notes: Spell Cast Helper (v0.13)
## Author: Dmitry V Loshmanov (odinpiter@mail.ru)
## SavedVariables: RhoTools_Options
RhoColorHelper.lua
RhoMessageHelper.lua
RhoEvents.lua
RhoTools.lua
RhoSpellHelper.lua
RhoTalentHelper.lua
RhoBuffHelper.lua
RhoDebuffHelper.lua
RhoActionHelper.lua
RhoSynonym.lua
RhoTools.xml